var data = {"total":219,"per_page":30,"current_page":1,"last_page":8,"next_page_url":"https:\/\/animepahe.com\/api?page=2","prev_page_url":null,"from":1,"to":30,"data":[{"id":38905,"anime_id":1609,"anime_title":"Naruto","anime_slug":"naruto","episode":"001","title":"","fansub":"DarkDream","snapshot":"https:\/\/d.upld.me\/2017\/10\/11\/Rv0zY.md.jpg","disc":"DVD","duration":"00:23:36","session":"7c69a769ee4eae7322d176ab2b90fac5d1c4e321","filler":0,"created_at":"2017-10-11 10:52:46"},{"id":38907,"anime_id":1609,"anime_title":"Naruto","anime_slug":"naruto","episode":"002","title":"","fansub":"DarkDream","snapshot":"https:\/\/d.upld.me\/2017\/10\/11\/Rv1WH.md.jpg","disc":"DVD","duration":"00:23:33","session":"24001e630b5e423c80a0b6cbf5577f15ad911b7f","filler":0,"created_at":"2017-10-11 10:53:15"},{"id":38908,"anime_id":1609,"anime_title":"Naruto","anime_slug":"naruto","episode":"003","title":"","fansub":"DarkDream","snapshot":"https:\/\/d.upld.me\/2017\/10\/11\/RvRtR.md.jpg","disc":"DVD","duration":"00:23:41","session":"08c2b7669cd5894bfcadc1738180170c6d4e0483","filler":0,"created_at":"2017-10-11 10:53:29"},{"id":38909,"anime_id":1609,"anime_title":"Naruto","anime_slug":"naruto","episode":"004","title":"","fansub":"DarkDream","snapshot":"https:\/\/d.upld.me\/2017\/10\/11\/RvoFw.md.jpg","disc":"DVD","duration":"00:23:38","session":"51b09c0f999419882500ecd32735c7b800d9630b","filler":0,"created_at":"2017-10-11 10:53:44"},{"id":38910,"anime_id":1609,"anime_title":"Naruto","anime_slug":"naruto","episode":"005","title":"","fansub":"DarkDream","snapshot":"https:\/\/d.upld.me\/2017\/10\/11\/Rv9CN.md.jpg","disc":"DVD","duration":"00:23:37","session":"4cd3dd16c6b095554dca0c4d3221c3f6aaad57f3","filler":0,"created_at":"2017-10-11 10:53:59"},{"id":38911,"anime_id":1609,"anime_title":"Naruto","anime_slug":"naruto","episode":"006","title":"","fansub":"DarkDream","snapshot":"https:\/\/d.upld.me\/2017\/10\/11\/RvYs0.md.jpg","disc":"DVD","duration":"00:23:37","session":"b488455eca9b4bf985da581b0bc499009078593e","filler":0,"created_at":"2017-10-11 10:54:13"},{"id":38912,"anime_id":1609,"anime_title":"Naruto","anime_slug":"naruto","episode":"007","title":"","fansub":"DarkDream","snapshot":"https:\/\/d.upld.me\/2017\/10\/11\/Rv58a.md.jpg","disc":"DVD","duration":"00:23:38","session":"38df2e12ae5c5707f8e8f96dc4b7201ae92e01b0","filler":0,"created_at":"2017-10-11 10:54:28"},{"id":38913,"anime_id":1609,"anime_title":"Naruto","anime_slug":"naruto","episode":"008","title":"","fansub":"DarkDream","snapshot":"https:\/\/d.upld.me\/2017\/10\/11\/RvEEG.md.jpg","disc":"DVD","duration":"00:23:38","session":"3a8ebeb92386fd9a5d31fc78f14866130ec2c3f6","filler":0,"created_at":"2017-10-11 10:54:43"},{"id":38914,"anime_id":1609,"anime_title":"Naruto","anime_slug":"naruto","episode":"009","title":"","fansub":"DarkDream","snapshot":"https:\/\/d.upld.me\/2017\/10\/11\/RvIAy.md.jpg","disc":"DVD","duration":"00:23:37","session":"545f054470d62187bfb3f7123c3fc329f3f8eac7","filler":0,"created_at":"2017-10-11 10:54:57"},{"id":38915,"anime_id":1609,"anime_title":"Naruto","anime_slug":"naruto","episode":"010","title":"","fansub":"DarkDream","snapshot":"https:\/\/d.upld.me\/2017\/10\/11\/RvQzs.md.jpg","disc":"DVD","duration":"00:23:36","session":"0e32dac48de0c9b8fa9c8364f95ba6a5b033972b","filler":0,"created_at":"2017-10-11 10:55:11"},{"id":38916,"anime_id":1609,"anime_title":"Naruto","anime_slug":"naruto","episode":"011","title":"","fansub":"DarkDream","snapshot":"https:\/\/d.upld.me\/2017\/10\/11\/Rv4bu.md.jpg","disc":"DVD","duration":"00:23:38","session":"a112165f637639d5cd458606f96a5fa5cb8eb8f3","filler":0,"created_at":"2017-10-11 10:55:25"},{"id":38917,"anime_id":1609,"anime_title":"Naruto","anime_slug":"naruto","episode":"012","title":"","fansub":"DarkDream","snapshot":"https:\/\/d.upld.me\/2017\/10\/11\/Rvcf8.md.jpg","disc":"DVD","duration":"00:23:37","session":"41bfae6e5d313c7303a46430c6c00e7571e4213d","filler":0,"created_at":"2017-10-11 10:55:39"},{"id":38918,"anime_id":1609,"anime_title":"Naruto","anime_slug":"naruto","episode":"013","title":"","fansub":"DarkDream","snapshot":"https:\/\/d.upld.me\/2017\/10\/11\/RvCth.md.jpg","disc":"DVD","duration":"00:23:39","session":"475852a9ad7129819bde53860672dec9d671d00d","filler":0,"created_at":"2017-10-11 10:55:52"},{"id":38906,"anime_id":1609,"anime_title":"Naruto","anime_slug":"naruto","episode":"014","title":"","fansub":"DarkDream","snapshot":"https:\/\/d.upld.me\/2017\/10\/11\/RvTRz.md.jpg","disc":"DVD","duration":"00:23:53","session":"f64f909326db0a29b47f141c09a001ccf9984310","filler":0,"created_at":"2017-10-11 10:53:02"},{"id":38919,"anime_id":1609,"anime_title":"Naruto","anime_slug":"naruto","episode":"015","title":"","fansub":"DarkDream","snapshot":"https:\/\/d.upld.me\/2017\/10\/11\/RvOr5.md.jpg","disc":"DVD","duration":"00:23:49","session":"a0554c41c216e21f85b501122047402876afc0a5","filler":0,"created_at":"2017-10-11 10:56:07"},{"id":38920,"anime_id":1609,"anime_title":"Naruto","anime_slug":"naruto","episode":"016","title":"","fansub":"DarkDream","snapshot":"https:\/\/d.upld.me\/2017\/10\/11\/RvqC6.md.jpg","disc":"DVD","duration":"00:23:51","session":"675bf6e95d4463308ce6da9082647a566dba55d3","filler":0,"created_at":"2017-10-11 10:56:22"},{"id":38921,"anime_id":1609,"anime_title":"Naruto","anime_slug":"naruto","episode":"017","title":"","fansub":"DarkDream","snapshot":"https:\/\/d.upld.me\/2017\/10\/11\/RvBsS.md.jpg","disc":"DVD","duration":"00:23:55","session":"c2ff9111dcbe85f07c11e2f9506054bee4d1fa99","filler":0,"created_at":"2017-10-11 10:56:35"},{"id":38922,"anime_id":1609,"anime_title":"Naruto","anime_slug":"naruto","episode":"018","title":"","fansub":"DarkDream","snapshot":"https:\/\/d.upld.me\/2017\/10\/11\/RvWVo.md.jpg","disc":"DVD","duration":"00:23:56","session":"063e87919f6c1f81943e79f3742f93378f95d1ba","filler":0,"created_at":"2017-10-11 10:56:49"},{"id":38923,"anime_id":1609,"anime_title":"Naruto","anime_slug":"naruto","episode":"019","title":"","fansub":"DarkDream","snapshot":"https:\/\/d.upld.me\/2017\/10\/11\/RvfEU.md.jpg","disc":"DVD","duration":"00:23:55","session":"e62178e45dc9e35191030fa6eead710998107e4e","filler":0,"created_at":"2017-10-11 10:57:05"},{"id":38924,"anime_id":1609,"anime_title":"Naruto","anime_slug":"naruto","episode":"020","title":"","fansub":"DarkDream","snapshot":"https:\/\/d.upld.me\/2017\/10\/11\/Rv7Af.md.jpg","disc":"DVD","duration":"00:23:56","session":"cc3494987f47b5501cf18175d062ffdd2316c665","filler":0,"created_at":"2017-10-11 10:57:20"},{"id":38925,"anime_id":1609,"anime_title":"Naruto","anime_slug":"naruto","episode":"021","title":"","fansub":"DarkDream","snapshot":"https:\/\/d.upld.me\/2017\/10\/11\/RvH3T.md.jpg","disc":"DVD","duration":"00:23:55","session":"5179afda70dd2c125cf203da0900ab5352838e59","filler":0,"created_at":"2017-10-11 10:57:35"},{"id":38926,"anime_id":1609,"anime_title":"Naruto","anime_slug":"naruto","episode":"022","title":"","fansub":"DarkDream","snapshot":"https:\/\/d.upld.me\/2017\/10\/11\/RvSbt.md.jpg","disc":"DVD","duration":"00:23:56","session":"cdc2494d9761e32d7c164fa7f8d567b591dada92","filler":0,"created_at":"2017-10-11 10:57:48"},{"id":38927,"anime_id":1609,"anime_title":"Naruto","anime_slug":"naruto","episode":"023","title":"","fansub":"DarkDream","snapshot":"https:\/\/d.upld.me\/2017\/10\/11\/RvPfq.md.jpg","disc":"DVD","duration":"00:23:55","session":"454909bf46cb7419d50439d7caf4e6ad5f9bcf79","filler":0,"created_at":"2017-10-11 10:58:03"},{"id":38928,"anime_id":1609,"anime_title":"Naruto","anime_slug":"naruto","episode":"024","title":"","fansub":"DarkDream","snapshot":"https:\/\/d.upld.me\/2017\/10\/11\/RvAvF.md.jpg","disc":"DVD","duration":"00:23:56","session":"70af0279271fc808acabc47ea4ac08afbc4ddde0","filler":0,"created_at":"2017-10-11 10:58:17"},{"id":38929,"anime_id":1609,"anime_title":"Naruto","anime_slug":"naruto","episode":"025","title":"","fansub":"DarkDream","snapshot":"https:\/\/d.upld.me\/2017\/10\/11\/Rvhr2.md.jpg","disc":"DVD","duration":"00:23:55","session":"37d027fc3e289fd7ba71f980466de494f7bada1b","filler":0,"created_at":"2017-10-11 10:58:32"},{"id":38930,"anime_id":1609,"anime_title":"Naruto","anime_slug":"naruto","episode":"026","title":"","fansub":"DarkDream","snapshot":"https:\/\/d.upld.me\/2017\/10\/11\/RvjGc.md.jpg","disc":"DVD","duration":"00:26:27","session":"62720beac0199daab3ddf9ff2dbe4ee42ced46f6","filler":0,"created_at":"2017-10-11 10:58:46"},{"id":38931,"anime_id":1609,"anime_title":"Naruto","anime_slug":"naruto","episode":"027","title":"","fansub":"DarkDream","snapshot":"https:\/\/d.upld.me\/2017\/10\/11\/Rvnxe.md.jpg","disc":"DVD","duration":"00:23:48","session":"6d760773f69c9b20110091ec2f1502037dbde4bd","filler":0,"created_at":"2017-10-11 10:59:01"},{"id":38932,"anime_id":1609,"anime_title":"Naruto","anime_slug":"naruto","episode":"028","title":"","fansub":"DarkDream","snapshot":"https:\/\/d.upld.me\/2017\/10\/11\/RvsVn.md.jpg","disc":"DVD","duration":"00:23:45","session":"601cf69111098ca735b1af7ba493c9615c4987fe","filler":0,"created_at":"2017-10-11 10:59:15"},{"id":38933,"anime_id":1609,"anime_title":"Naruto","anime_slug":"naruto","episode":"029","title":"","fansub":"DarkDream","snapshot":"https:\/\/d.upld.me\/2017\/10\/11\/RvxII.md.jpg","disc":"DVD","duration":"00:23:41","session":"76265b78ae13536eaa2907c83d4e133e928cb756","filler":0,"created_at":"2017-10-11 10:59:31"},{"id":38934,"anime_id":1609,"anime_title":"Naruto","anime_slug":"naruto","episode":"030","title":"","fansub":"DarkDream","snapshot":"https:\/\/d.upld.me\/2017\/10\/11\/Rv2Ad.md.jpg","disc":"DVD","duration":"00:23:41","session":"baa298f51a25a7bcfdc0e88d29a18b7aeac8e29e","filler":0,"created_at":"2017-10-11 10:59:44"}]}
