datapahe = {
"total":820,
"per_page":30,
"current_page":28,
"last_page":28,
"next_page_url":null,
"prev_page_url":"https:\/\/animepahe.com\/api?page=27",
"from":811,
"to":820,
"data":[{
	"id":26602,
	"anime_id":4,
	"anime_title":"One Piece",
	"anime_slug":"one-piece",
	"episode":"010",
	"title":"{
		\"title\":\"The Weirdest Guy Ever! Jango the Hypnotist!\",
		\"romaji\":\"Shijou Saikyou no Hen na Yatsu! Saiminjutsushi Jango\",
		\"japanese\":\"\\u53f2\\u4e0a\\u6700\\u5f37\\u306e\\u5909\\u306a\\u5974!\\u50ac\\u7720\\u8853\\u5e2b\\u30b8\\u30e3\\u30f3\\u30b4\"
	}",
	"fansub":"K-F&AKUPX",
	"snapshot":"https:\/\/d.upld.me\/2017\/03\/08\/27ea6fa70f419be9d18f5e4b2044d7d4.md.jpg",
	"disc":"",
	"duration":"00:00:00",
	"session":"bb75cc499a8e727532f467d8fb80d1ab2c3218bf",
	"filler":0,
	"created_at":"2017-01-19 08:00:53"
	},
	{
	"id":26601,
	"anime_id":4,
	"anime_title":"One Piece",
	"anime_slug":"one-piece",
	"episode":"009",
	"title":"{
		\"title\":\"The Honorable Liar? Captain Usopp!\",
		\"romaji\":\"Seigi no Usotsuki? Captain Usopp\",
		\"japanese\":\"\\u6b63\\u7fa9\\u306e\\u3046\\u305d\\u3064\\u304d?\\u30ad\\u30e3\\u30d7\\u30c6\\u30f3\\u30a6\\u30bd\\u30c3\\u30d7\"
	}",
	"fansub":"K-F&AKUPX",
	"snapshot":"https:\/\/d.upld.me\/2017\/03\/08\/acfd5fa1b90fcd2ef45444958ce7048b.md.jpg",
	"disc":"","duration":"00:00:00","session":"7f7fd6a2937c55b1155436a33c9ee0727d46b2a3",
	"filler":0,"created_at":"2017-01-19 07:58:18"
	},
	{
	"id":26600,
	"anime_id":4,
	"anime_title":"One Piece",
	"anime_slug":"one-piece",
	"episode":"008",
	"title":"{
		\"title\":\"Who is the Victor? Devil Fruit Power Showdown!\",
		\"romaji\":\"Shousha wa Dotchi? Akuma no Mi no Nouryoku Taiketsu!\",
		\"japanese\":\"\\u52dd\\u8005\\u306f\\u3069\\u3063\\u3061?\\u60aa\\u9b54\\u306e\\u5b9f\\u306e\\u80fd\\u529b\\u5bfe\\u6c7a!\"
		}",
	"fansub":"K-F&AKUPX",
	"snapshot":"https:\/\/d.upld.me\/2017\/03\/08\/77292db58b5bb823537b01dc62c7e469.md.jpg",
	"disc":"",
	"duration":"00:00:00",
	"session":"822ab46503b7983837530f16d83f11471977820c",
	"filler":0,
	"created_at":"2017-01-19 07:55:35"
	},
	{
	"id":26599,
	"anime_id":4,
	"anime_title":"One Piece",
	"anime_slug":"one-piece",
	"episode":"007",
	"title":"{
		\"title\":\"Epic Showdown! Swordsman Zoro vs. Acrobat Cabaji!\",
		\"romaji\":\"Souzetsu Kettou! Kengou Zoro vs Kyokugei no Cabaji!\",
		\"japanese\":\"\\u58ee\\u7d76\\u6c7a\\u95d8!\\u5263\\u8c6a\\u30be\\u30edvs\\u66f2\\u82b8\\u306e\\u30ab\\u30d0\\u30b8!\"
		}",
	"fansub":"K-F&AKUPX",
	"snapshot":"https:\/\/d.upld.me\/2017\/03\/08\/1ee0443c91ecc545945b0019039c35cf.md.jpg",
	"disc":"",
	"duration":"00:00:00",
	"session":"d2ec2e9e1e07beb5b75bd29eea35a0db5f7c8a86",
	"filler":0,
	"created_at":"2017-01-19 07:52:45"
	},
	{
	"id":26598,
	"anime_id":4,
	"anime_title":"One Piece",
	"anime_slug":"one-piece",
	"episode":"006",
	"title":"{
		\"title\":\"Desperate Situation! Beast Tamer Mohji vs. Luffy!\",
		\"romaji\":\"Zettai Zetsumei! Moujuutsukai Mohji VS Luffy!\",
		\"japanese\":\"\\u7d76\\u4f53\\u7d76\\u547d!\\u731b\\u7363\\u4f7f\\u3044\\u30e2\\u30fc\\u30b8vs\\u30eb\\u30d5\\u30a3!\"
	}",
	"fansub":"K-F",
	"snapshot":"https:\/\/d.upld.me\/2017\/03\/08\/bc412de2498cd45f4ab8cfa1e2497888.md.jpg",
	"disc":"",
	"duration":"00:00:00",
	"session":"c0fdb234ad79c5a96acd1b26bb9e75b289130573",
	"filler":0,
	"created_at":"2017-01-19 07:49:26"
	},
	{
	"id":26597,
	"anime_id":4,
	"anime_title":"One Piece",
	"anime_slug":"one-piece",
	"episode":"005",
	"title":"{
		\"title\":\"A Terrifying Mysterious Power! Captain Buggy, the Clown Pirate!\",
		\"romaji\":\"Kyoufu Nazo no Chikara! Kaizoku Douke Buggy-senchou!\",
		\"japanese\":\"\\u6050\\u6016!\\u8b0e\\u306e\\u529b\\u00b7\\u6d77\\u8cca\\u9053\\u5316\\u30d0\\u30ae\\u30fc\\u8239\\u9577!\"
		}",
	"fansub":"K-F",
	"snapshot":"https:\/\/d.upld.me\/2017\/03\/08\/297d873a34d40c34377eb788f3d4f9e8.md.jpg",
	"disc":"",
	"duration":"00:00:00",
	"session":"6b4f37e13f70f3c47e113e8804a1565b9e90acf2",
	"filler":0,
	"created_at":"2017-01-19 07:46:39"
	},
	{
	"id":26596,
	"anime_id":4,
	"anime_title":"One Piece",
	"anime_slug":"one-piece",
	"episode":"004",
	"title":"{
		\"title\":\"Luffy's Past! Enter Red-Haired Shanks!\",
		\"romaji\":\"Luffy no Kako! Akagami no Shanks Toujou\",
		\"japanese\":\"\\u30eb\\u30d5\\u30a3\\u306e\\u904e\\u53bb!\\u8d64\\u9aea\\u306e\\u30b7\\u30e3\\u30f3\\u30af\\u30b9\\u767b\\u5834\"
	}",
	"fansub":"K-F",
	"snapshot":"https:\/\/d.upld.me\/2017\/03\/08\/5d34740d24e4ca0f624831b63450be3f.md.jpg",
	"disc":"",
	"duration":"00:00:00",
	"session":"725b0c542179a6e7c19503ce794ae90061cd9e35",
	"filler":0,
	"created_at":"2017-01-19 07:43:52"
	},
	{
	"id":26595,
	"anime_id":4,
	"anime_title":"One Piece",
	"anime_slug":"one-piece",
	"episode":"003",
	"title":"{
		\"title\":\"Morgan versus Luffy! Who's the Mysterious Pretty Girl?\",
		\"romaji\":\"Morgan vs. Luffy! Nazo no Bishoujo wa Dare?\",
		\"japanese\":\"\\u30e2\\u30fc\\u30ac\\u30f3VS\\u30eb\\u30d5\\u30a3!\\u8b0e\\u306e\\u7f8e\\u5c11\\u5973\\u306f\\u8ab0?\"
	}",
	"fansub":"K-F",
	"snapshot":"https:\/\/d.upld.me\/2017\/03\/08\/755a63f7ed51f2b3eae8ff99904fa020.md.jpg",
	"disc":"",
	"duration":"00:00:00",
	"session":"1e060cb85dbd8e41d07d400cdd36588571749e64",
	"filler":0,
	"created_at":"2017-01-19 07:40:58"
	},
	{
	"id":26594,
	"anime_id":4,
	"anime_title":"One Piece",
	"anime_slug":"one-piece",
	"episode":"002",
	"title":"{
		\"title\":\"Enter the Great Swordsman! Pirate Hunter Roronoa Zoro!\",
		\"romaji\":\"Daikengou Arawaru! Kaizokugari Roronoa Zoro\",
		\"japanese\":\"\\u5927\\u5263\\u8c6a\\u73fe\\u308b!\\u6d77\\u8cca\\u72e9\\u308a\\u30ed\\u30ed\\u30ce\\u30a2\\u00b7\\u30be\\u30ed\"
	}",
	"fansub":"K-F",
	"snapshot":"https:\/\/d.upld.me\/2017\/03\/08\/b210e6770fe5a1e9cf88122c15609487.md.jpg",
	"disc":"",
	"duration":"00:00:00",
	"session":"a3de4b6a0cd0752e2c93701a78b6a68de9f75140",
	"filler":0,
	"created_at":"2017-01-19 07:37:07"
	},
	{
	"id":26593,
	"anime_id":4,
	"anime_title":"One Piece",
	"anime_slug":"one-piece",
	"episode":"001",
	"title":"{
		\"title\":\"I'm Luffy! The Man Who's Gonna Be King of the Pirates!\",
		\"romaji\":\"Ore wa Luffy! Kaizoku Ou ni Naru Otoko Da!\",
		\"japanese\":\"\\u4ffa\\u306f\\u30eb\\u30d5\\u30a3!\\u6d77\\u8cca\\u738b\\u306b\\u306a\\u308b\\u7537\\u3060!\"
	}",
	"fansub":"K-F",
	"snapshot":"https:\/\/d.upld.me\/2017\/03\/08\/1e21b8d231536b657e2788b8df532f46.md.jpg",
	"disc":"",
	"duration":"00:00:00",
	"session":"c419739c1069e540392304b69f2efcbb99c5c1af",
	"filler":0,
	"created_at":"2017-01-19 07:33:12"
	}]
}